tidytuesday-exercise – Murtaza Yaqubi’s Data Analysis Portfolio
…
Rows: 1,232
Columns: 8
$ state        <chr> "AK", "AK", "AK", "AK", "AK", "AK", "AK", "AK", "AK", "AK…
$ condition    <chr> "Healthcare Personnel Vaccination", "Healthcare Personnel…
$ measure_id   <chr> "HCP_COVID_19", "IMM_3", "OP_18b", "OP_18b_HIGH_MIN", "OP…
$ measure_name <chr> "Percentage of healthcare personnel who are up to date wi…
$ score        <dbl> 7.3, 80.0, 140.0, 157.0, 136.0, 136.0, NA, 196.0, 230.0, …
$ footnote     <chr> NA, NA, "25, 26", "25, 26", "25, 26", "25, 26", "25, 26",…
$ start_date   <date> 2024-01-01, 2023-10-01, 2023-04-01, 2023-04-01, 2023-04-…
$ end_date     <date> 2024-03-31, 2024-03-31, 2024-03-31, 2024-03-31, 2024-03-…

head(care_raw, n = 100)

# A tibble: 100 × 8
   state condition  measure_id measure_name score footnote start_date end_date  
   <chr> <chr>      <chr>      <chr>        <dbl> <chr>    <date>     <date>    
 1 AK    Healthcar… HCP_COVID… Percentage …   7.3 <NA>     2024-01-01 2024-03-31
 2 AK    Healthcar… IMM_3      Healthcare …  80   <NA>     2023-10-01 2024-03-31
 3 AK    Emergency… OP_18b     Average (me… 140   25, 26   2023-04-01 2024-03-31
 4 AK    Emergency… OP_18b_HI… Average tim… 157   25, 26   2023-04-01 2024-03-31
 5 AK    Emergency… OP_18b_LO… Average tim… 136   25, 26   2023-04-01 2024-03-31
 6 AK    Emergency… OP_18b_ME… Average tim… 136   25, 26   2023-04-01 2024-03-31
 7 AK    Emergency… OP_18b_VE… Average tim…  NA   25, 26   2023-04-01 2024-03-31
 8 AK    Emergency… OP_18c     Average (me… 196   25       2023-04-01 2024-03-31
 9 AK    Emergency… OP_18c_HI… Average tim… 230   25       2023-04-01 2024-03-31
10 AK    Emergency… OP_18c_LO… Average tim… 182   25       2023-04-01 2024-03-31
# ℹ 90 more rows
…
