cdcdata-exercise.qmd – Murtaza Yaqubi’s Data Analysis Portfolio
…
# Create a table that provides the number and percent of mortality pe state. 
state_totals <- df_cleaned %>%
  group_by(State) %>%       # Group by State
  summarise(mortality_cases = sum(Mortality)) %>%  # Sum the cases
  mutate(Percent_mortality = percent_format(accuracy = 0.001)(mortality_cases / sum(mortality_cases))) %>%   # this chunck of code adds percent sign within 3 decimal points.
  arrange(desc(mortality_cases))  # Sort from highest to lowest

print(state_totals)  # View the results

# A tibble: 50 × 3
   State mortality_cases Percent_mortality
   <chr>           <dbl> <chr>            
 1 TX            505061. 9.566%           
 2 GA            308311. 5.839%           
 3 OK            260597. 4.936%           
 4 VA            215458. 4.081%           
 5 CA            202419. 3.834%           
 6 NC            185049. 3.505%           
 7 TN            182244. 3.452%           
 8 MS            181186. 3.432%           
 9 OH            173150. 3.280%           
10 KY            171416. 3.247%           
# ℹ 40 more rows
…
