fitting-exercise.qmd – Murtaza Yaqubi’s Data Analysis Portfolio
…
# Step 2: Create a data frame with only observations where TIME == 0
trial_time0 <- occ_trial %>%
  filter(TIME == 0)

# Step 3: Join the two data frames
final_df <- trial_time0 %>%
  left_join(trial_without_time0, by = "ID")

# View the resulting data frame
print(final_df)

# A tibble: 120 × 18
      ID   CMT  EVID  EVI2   MDV    DV  LNDV   AMT  TIME DOSE    OCC  RATE   AGE
   <dbl> <dbl> <dbl> <dbl> <dbl> <dbl> <dbl> <dbl> <dbl> <fct> <dbl> <dbl> <dbl>
 1   793     1     1     1     1     0     0    25     0 25        1    75    42
 2   794     1     1     1     1     0     0    25     0 25        1   150    24
 3   795     1     1     1     1     0     0    25     0 25        1   150    31
 4   796     1     1     1     1     0     0    25     0 25        1   150    46
 5   797     1     1     1     1     0     0    25     0 25        1   150    41
 6   798     1     1     1     1     0     0    25     0 25        1   150    27
 7   799     1     1     1     1     0     0    25     0 25        1   150    23
 8   800     1     1     1     1     0     0    25     0 25        1   150    20
 9   801     1     1     1     1     0     0    25     0 25        1   150    23
10   802     1     1     1     1     0     0    25     0 25        1   150    28
# ℹ 110 more rows
# ℹ 5 more variables: SEX <dbl>, RACE <dbl>, WT <dbl>, HT <dbl>, Y <dbl>

#Convert RACE and SEX to factors and keep only the specified variables
df_cleaned <- final_df %>%
  mutate(
    RACE = as.factor(RACE),
    SEX = as.factor(SEX)
  ) %>%
  select(Y, DOSE, AGE, SEX, RACE, WT, HT)

# View the resulting data frame
print(df_cleaned)

# A tibble: 120 × 7
       Y DOSE    AGE SEX   RACE     WT    HT
   <dbl> <fct> <dbl> <fct> <fct> <dbl> <dbl>
 1 2691. 25       42 1     2      94.3  1.77
 2 2639. 25       24 1     2      80.4  1.76
 3 2150. 25       31 1     1      71.8  1.81
 4 1789. 25       46 2     1      77.4  1.65
 5 3126. 25       41 2     2      64.3  1.56
 6 2337. 25       27 1     2      74.1  1.83
 7 3007. 25       23 1     1      87.9  1.85
 8 2796. 25       20 1     88     61.9  1.73
 9 3866. 25       23 1     2      65.3  1.65
10 1762. 25       28 1     1     104.   1.84
# ℹ 110 more rows
…
